MD5,SHA1,FileNames
"560dc277ad73da5fe5b365ee9d3da0cf","2f4faf9d791757ed562f85cd514b9eeb68563b5b","Dropbox\E:\Experiment\STORY_01 - Copy\2A FR1\03_disk Image from WinUser8\extracted\Dropbox\.dropbox"
"095fd293b0ffca1dfe2b7883d530cc0d","03223057e4081af7d6442dbedfda48d474c172a7","Dropbox\E:\Experiment\STORY_01 - Copy\2A FR1\03_disk Image from WinUser8\extracted\Dropbox\DERM Statistical Data Sample 1.xla"
"80c863dcfa67b641effce6c44be0cc27","5e451dce5c0a7528f927a9642cc749fe1eb50907","Dropbox\E:\Experiment\STORY_01 - Copy\2A FR1\03_disk Image from WinUser8\extracted\Dropbox\DERM Statistical Data Sample 1.xltx"
"94eb8b5eadcdfb727820339d1ff4a218","269bb9b5ecaabf30b518fde68215315f3a9cc866","Dropbox\E:\Experiment\STORY_01 - Copy\2A FR1\03_disk Image from WinUser8\extracted\Dropbox\desktop.ini"
"6862571502419d8f3c26440e7d7dbf55","7f8a9886a183c0b349e058e570c78d5a3333786d","Dropbox\E:\Experiment\STORY_01 - Copy\2A FR1\03_disk Image from WinUser8\extracted\Dropbox\Disposing of Digital Debris - 97.doc"
"cdf50bd27fdd2e8e79dfa91e99de92c9","6e4420053910e6bbad51900a68999f55211d0c0b","Dropbox\E:\Experiment\STORY_01 - Copy\2A FR1\03_disk Image from WinUser8\extracted\Dropbox\Disposing of Digital Debris Sample 1.pptx"
"f326b829a35d32eea1dd1bca78fd1d20","02281d9ac9f4ab52de0e8351db235e7bba1c45d3","Dropbox\E:\Experiment\STORY_01 - Copy\2A FR1\03_disk Image from WinUser8\extracted\Dropbox\Disposing of Digital Debris.docm"
"b41ed5820f5f010e943ead3fe4216b84","669fe79cca7b52897c65ae5c52af1e3033898a31","Dropbox\E:\Experiment\STORY_01 - Copy\2A FR1\03_disk Image from WinUser8\extracted\Dropbox\Disposing of Digital Debris.dotm"
"49be1d51479f08278e448dd5ea927560","b9e16f4ea69e8efec4c75a92974b4bed920ca61f","Dropbox\E:\Experiment\STORY_01 - Copy\2A FR1\03_disk Image from WinUser8\extracted\Dropbox\Disposing of Digital Debris.odt"
"44482fe971919a4a44db162fc6351060","663f1a137b48f32a85dbeb9fa2063d59a58eb167","Dropbox\E:\Experiment\STORY_01 - Copy\2A FR1\03_disk Image from WinUser8\extracted\Dropbox\Disposing-of-Digital-Debris-Information-Governance-Practice-and-Strategy.rtf"
"5446853cc33806d508ad79bc84aeb4ed","40bfa8bebf7436b4e1503869d9ed93e74310de8c","Dropbox\E:\Experiment\STORY_01 - Copy\2A FR1\03_disk Image from WinUser8\extracted\Dropbox\EDRM.html"
"9c28e141873498ca40e9d803b4d3823b","9fc2db63b3389f49af94885c8a80481eabe2ac6a","Dropbox\E:\Experiment\STORY_01 - Copy\2A FR1\03_disk Image from WinUser8\extracted\Dropbox\Getting Started with Dropbox Paper.url"
"2493b04a2db370a676cce22941229e66","3cc81afe909a58cabda1216e5fa8a16fd02c7428","Dropbox\E:\Experiment\STORY_01 - Copy\2A FR1\03_disk Image from WinUser8\extracted\Dropbox\Getting Started with Dropbox.pdf"
"bfe1246371ddb138ad903f6542a7012e","cfc142ee3d9ffde0671f9e0a8183e0cdbd1f4c91","Dropbox\E:\Experiment\STORY_01 - Copy\2A FR1\03_disk Image from WinUser8\extracted\Dropbox\IMG_3090.JPG"
