MD5,SHA1,FileNames
"9005d6f1951b557022cbbd99180edadc","24a35de3c3ee03a5cce59891add7865cfa67fa03","Dropbox (1)\E:\Experiment\STORY_01 - Copy\3A web interface\WinUser8-A IE\Dropbox (1)\DERM Statistical Data Sample 1.xlsx"
"80c863dcfa67b641effce6c44be0cc27","5e451dce5c0a7528f927a9642cc749fe1eb50907","Dropbox (1)\E:\Experiment\STORY_01 - Copy\3A web interface\WinUser8-A IE\Dropbox (1)\DERM Statistical Data Sample 1.xltx"
"6862571502419d8f3c26440e7d7dbf55","7f8a9886a183c0b349e058e570c78d5a3333786d","Dropbox (1)\E:\Experiment\STORY_01 - Copy\3A web interface\WinUser8-A IE\Dropbox (1)\Disposing of Digital Debris - 97.doc"
"6c6c7f795d93d63feb79e6d39436c1aa","3d5bf0cb2089b7830a2e77dd31ff4071191786e0","Dropbox (1)\E:\Experiment\STORY_01 - Copy\3A web interface\WinUser8-A IE\Dropbox (1)\Disposing of Digital Debris Sample 1.pot"
"cdf50bd27fdd2e8e79dfa91e99de92c9","6e4420053910e6bbad51900a68999f55211d0c0b","Dropbox (1)\E:\Experiment\STORY_01 - Copy\3A web interface\WinUser8-A IE\Dropbox (1)\Disposing of Digital Debris Sample 1.pptx"
"f326b829a35d32eea1dd1bca78fd1d20","02281d9ac9f4ab52de0e8351db235e7bba1c45d3","Dropbox (1)\E:\Experiment\STORY_01 - Copy\3A web interface\WinUser8-A IE\Dropbox (1)\Disposing of Digital Debris.docm"
"b41ed5820f5f010e943ead3fe4216b84","669fe79cca7b52897c65ae5c52af1e3033898a31","Dropbox (1)\E:\Experiment\STORY_01 - Copy\3A web interface\WinUser8-A IE\Dropbox (1)\Disposing of Digital Debris.dotm"
"a44c72e86db6315c4489bd93375c49a8","a19166bfc4fd17d8595e5cc8959b28a617943b96","Dropbox (1)\E:\Experiment\STORY_01 - Copy\3A web interface\WinUser8-A IE\Dropbox (1)\Disposing of Digital Debris.odt"
"44482fe971919a4a44db162fc6351060","663f1a137b48f32a85dbeb9fa2063d59a58eb167","Dropbox (1)\E:\Experiment\STORY_01 - Copy\3A web interface\WinUser8-A IE\Dropbox (1)\Disposing-of-Digital-Debris-Information-Governance-Practice-and-Strategy.rtf"
"cbde1cd980251abd638a514350d719ef","27ee51dc787d54ddb93d3f71bcb1f08d8ca18c38","Dropbox (1)\E:\Experiment\STORY_01 - Copy\3A web interface\WinUser8-A IE\Dropbox (1)\Disposing-of-Digital-Debris-Information-Governance-Practice-and-Strategy_Page_02.tif"
"5446853cc33806d508ad79bc84aeb4ed","40bfa8bebf7436b4e1503869d9ed93e74310de8c","Dropbox (1)\E:\Experiment\STORY_01 - Copy\3A web interface\WinUser8-A IE\Dropbox (1)\EDRM.html"
"9c28e141873498ca40e9d803b4d3823b","9fc2db63b3389f49af94885c8a80481eabe2ac6a","Dropbox (1)\E:\Experiment\STORY_01 - Copy\3A web interface\WinUser8-A IE\Dropbox (1)\Getting Started with Dropbox Paper.url"
"2493b04a2db370a676cce22941229e66","3cc81afe909a58cabda1216e5fa8a16fd02c7428","Dropbox (1)\E:\Experiment\STORY_01 - Copy\3A web interface\WinUser8-A IE\Dropbox (1)\Getting Started with Dropbox.pdf"
"bfe1246371ddb138ad903f6542a7012e","cfc142ee3d9ffde0671f9e0a8183e0cdbd1f4c91","Dropbox (1)\E:\Experiment\STORY_01 - Copy\3A web interface\WinUser8-A IE\Dropbox (1)\IMG_3090.JPG"
