SourceFile,AccelerationVector,Aperture,ApertureValue,Application,AppVersion,Author,BitsPerSample,BrightnessValue,Bytes,Characters,CharactersWithSpaces,CharCountWithSpaces,CircleOfConfusion,CodePage,ColorComponents,ColorSpace,Company,CompObjUserType,CompObjUserTypeLen,ComponentsConfiguration,Compression,ContentType,CreateDate,Creation-date,Creator,CreatorTool,CurrentUser,Date,DateTimeOriginal,DerivedFromDocumentID,DerivedFromInstanceID,DerivedFromOriginalDocumentID,DerivedFromRenditionClass,Directory,DocChangeCount,DocSecurity,Document-statisticCharacter-count,Document-statisticNon-whitespace-character-count,Document-statisticPage-count,Document-statisticParagraph-count,Document-statisticRow-count,Document-statisticWord-count,DocumentID,Editing-cycles,Editing-duration,EncodingProcess,ExifByteOrder,ExifImageHeight,ExifImageWidth,ExifToolVersion,ExifVersion,ExposureCompensation,ExposureMode,ExposureProgram,ExposureTime,FileAccessDate,FileCreateDate,FileModifyDate,FileName,FilePermissions,FileSize,FileType,FileTypeExtension,Flash,FlashpixVersion,FNumber,FocalLength,FocalLength35efl,FocalLengthIn35mmFormat,Format,FOV,Generator,HeadingPairs,HiddenSlides,HistoryAction,HistoryChanged,HistoryInstanceID,HistorySoftwareAgent,HistoryWhen,HyperfocalDistance,HyperlinksChanged,ImageHeight,ImageSize,ImageWidth,Initial-creator,InstanceID,ISO,KeyStampMp,LastModifiedBy,LensInfo,LensMake,LensModel,LightValue,Linearized,Lines,LinksUpToDate,Make,Megapixels,MetadataDate,MeteringMode,MIMEType,MMClips,Model,ModifyDate,Notes,Orientation,OriginalDocumentID,PageCount,PageImage,PageImageFormat,PageImageHeight,PageImagePageNumber,PageImageWidth,Pages,Paragraphs,PDFVersion,PhotometricInterpretation,PlanarConfiguration,PresentationFormat,PresentationTarget,PreviewImage,Producer,RenditionClass,ResolutionUnit,RevisionNumber,RowsPerStrip,RunTimeEpoch,RunTimeFlags,RunTimeScale,RunTimeSincePowerUp,RunTimeValue,SamplesPerPixel,ScaleCrop,ScaleFactor35efl,SceneCaptureType,SceneType,Security,SensingMethod,SharedDoc,ShutterSpeed,ShutterSpeedValue,Slides,SlugChecksum,SlugFamily,SlugFontKind,SlugFontSense_12_Checksum,SlugFoundry,SlugKerningChecksum,SlugOutlineFileSize,SlugPostScriptName,SlugVersion,Software,StripByteCounts,StripOffsets,SubjectArea,SubSecCreateDate,SubSecDateTimeOriginal,SubSecTimeDigitized,SubSecTimeOriginal,TaggedPDF,Template,TemplateHref,TemplateType,ThumbnailClip,ThumbnailImage,ThumbnailLength,ThumbnailOffset,Title,TitleOfParts,TitlesOfParts,TotalEditTime,Trapped,WhiteBalance,Words,XMPToolkit,XResolution,YCbCrPositioning,YCbCrSubSampling,YResolution,ZipBitFlag,ZipCompressedSize,ZipCompression,ZipCRC,ZipFileName,ZipModifyDate,ZipRequiredVersion,ZipUncompressedSize
E:/Experiment/STORY_01 - Copy/3A web interface/WinFor10-A Chrome/DERM Statistical Data Sample 1.xlsx,,,,Microsoft Excel,14.03,,,,,,,,,,,,AUT University,,,,,,2014:11:25 22:53:50Z,,tzhuang,,,,,,,,,E:/Experiment/STORY_01 - Copy/3A web interface/WinFor10-A Chrome,,None,,,,,,,,,,,,,,10.61,,,,,,2018:03:12 16:38:54+00:00,2018:03:12 16:38:54+00:00,2018:03:12 14:32:02+00:00,DERM Statistical Data Sample 1.xlsx,rw-rw-rw-,18 kB,XLSX,xlsx,,,,,,,,,,"Worksheets, 3",,,,,,,,No,,,,,,,,tzhuang,,,,,,,No,,,,,application/vnd.openxmlformats-officedocument.spreadsheetml.sheet,,,2014:11:25 23:31:14Z,,,,,,,,,,,,,,,,,,,,,,,,,,,,,No,,,,,,No,,,,,,,,,,,,,,,,,,,,,,,,,,,,,,,"Sheet1, Sheet2, Sheet3",,,,,,,,,,0x0006,388,Deflated,0xf5582b6a,[Content_Types].xml,1980:01:01 00:00:00,20,1610
E:/Experiment/STORY_01 - Copy/3A web interface/WinFor10-A Chrome/Disposing of Digital Debris Sample 1.pot,,,,,14,tzhuang,,,2686712,,,,,Windows Latin 1 (Western European),,,AUT University,,,,,,2014:11:25 22:09:47,,,,tzhuang,,,,,,,E:/Experiment/STORY_01 - Copy/3A web interface/WinFor10-A Chrome,,,,,,,,,,,,,,,,10.61,,,,,,2018:03:12 16:38:54+00:00,2018:03:12 16:38:54+00:00,2018:03:12 14:32:58+00:00,Disposing of Digital Debris Sample 1.pot,rw-rw-rw-,2.6 MB,POT,pot,,,,,,,,,,"Fonts Used, 5, Theme, 1, Slide Titles, 4",0,,,,,,,No,,,,,,,,tzhuang,,,,,,,No,,,,,application/vnd.ms-powerpoint,0,,2014:11:25 22:45:20,0,,,,,,,,,,21,,,,,On-screen Show (4:3),,,,,5,,,,,,,,No,,,,,,No,,,4,,,,,,,,,,Microsoft Office PowerPoint,,,,,,,,,,,,(Binary data 57736 bytes),,,,Disposing of Digital Debris,"Calibri, Arial, Calibri-Bold, Times New Roman, Calibri-BoldItalic, Office Theme, Disposing of Digital Debris Information Governance Strategy and Practice in Action , Introduction, Introduction (Cont.), Introduction (Cont.)",,35.6 minutes,,,213,,,,,,,,,,,,,
E:/Experiment/STORY_01 - Copy/3A web interface/WinFor10-A Chrome/Disposing-of-Digital-Debris-Information-Governance-Practice-and-Strategy.rtf,,,,,,George Socha,,,,,,,,,,,,,,,,,2014:04:21 16:56:44,,,,,,,,,,,E:/Experiment/STORY_01 - Copy/3A web interface/WinFor10-A Chrome,,,,,,,,,,,,,,,,10.61,,,,,,2018:03:12 16:38:55+00:00,2018:03:12 16:38:55+00:00,2018:03:12 14:34:44+00:00,Disposing-of-Digital-Debris-Information-Governance-Practice-and-Strategy.rtf,rw-rw-rw-,5.2 MB,RTF,rtf,,,,,,,,,,,,,,,,,,,,,,,,,,,,,,,,,,,,,,text/rtf,,,2014:11:24 23:04:51,,,,,,,,,,,,,,,,,,,,,,,,,,,,,,,,,,,,,,,,,,,,,,,,,,,,,,,,,,,,,,,,Disposing of Digital Debris Information Governance Practice and Strategy in Action EDRM CGOC,,,,,,,,,,,,,,,,,,,
E:/Experiment/STORY_01 - Copy/3A web interface/WinFor10-A Chrome/Disposing-of-Digital-Debris-Information-Governance-Practice-and-Strategy_Page_02.tif,,,,,,,8 8 8 8,,,,,,,,,,,,,,LZW,,,,,,,,,,,,,E:/Experiment/STORY_01 - Copy/3A web interface/WinFor10-A Chrome,,,,,,,,,,,,,"Little-endian (Intel, II)",,,10.61,,,,,,2018:03:12 16:38:55+00:00,2018:03:12 16:38:55+00:00,2018:03:12 14:33:52+00:00,Disposing-of-Digital-Debris-Information-Governance-Practice-and-Strategy_Page_02.tif,rw-rw-rw-,341 kB,TIFF,tif,,,,,,,,,,,,,,,,,,,2200,1700x2200,1700,,,,,,,,,,,,,,3.7,,,image/tiff,,,,,Horizontal (normal),,,,,,,,,,,CMYK,Chunky,,,,,,inches,,1,,,,,,4,,,,,,,,,,,,,,,,,,,,,(Binary data 8799 bytes),(Binary data 14610 bytes),,,,,,,,,,,,,,,,,,,,,,200,,,200,,,,,,,,
E:/Experiment/STORY_01 - Copy/3A web interface/WinFor10-A Chrome/Dropbox.zip,,,,,,,,,,,,,,,,,,,,,,,,,,,,,,,,,,E:/Experiment/STORY_01 - Copy/3A web interface/WinFor10-A Chrome,,,,,,,,,,,,,,,,10.61,,,,,,2018:03:12 16:38:55+00:00,2018:03:12 16:38:55+00:00,2018:03:12 14:31:05+00:00,Dropbox.zip,rw-rw-rw-,23 MB,ZIP,zip,,,,,,,,,,,,,,,,,,,,,,,,,,,,,,,,,,,,,,application/zip,,,,,,,,,,,,,,,,,,,,,,,,,,,,,,,,,,,,,,,,,,,,,,,,,,,,,,,,,,,,,,,,,,,,,,,,,,,,,,,0x0808,2676061,Deflated,0xd7edcbec,Disposing of Digital Debris Sample 1.pot,2018:03:11 16:30:04,20,2770432
