SourceFile,AccelerationVector,Aperture,ApertureValue,Application,AppVersion,Author,BitsPerSample,BrightnessValue,Bytes,Characters,CharactersWithSpaces,CharCountWithSpaces,CircleOfConfusion,CodePage,ColorComponents,ColorSpace,Company,CompObjUserType,CompObjUserTypeLen,ComponentsConfiguration,Compression,ContentType,CreateDate,Creation-date,Creator,CreatorTool,CurrentUser,Date,DateTimeOriginal,DerivedFromDocumentID,DerivedFromInstanceID,DerivedFromOriginalDocumentID,DerivedFromRenditionClass,Directory,DocChangeCount,DocSecurity,Document-statisticCharacter-count,Document-statisticNon-whitespace-character-count,Document-statisticPage-count,Document-statisticParagraph-count,Document-statisticRow-count,Document-statisticWord-count,DocumentID,Editing-cycles,Editing-duration,EncodingProcess,ExifByteOrder,ExifImageHeight,ExifImageWidth,ExifToolVersion,ExifVersion,ExposureCompensation,ExposureMode,ExposureProgram,ExposureTime,FileAccessDate,FileCreateDate,FileModifyDate,FileName,FilePermissions,FileSize,FileType,FileTypeExtension,Flash,FlashpixVersion,FNumber,FocalLength,FocalLength35efl,FocalLengthIn35mmFormat,Format,FOV,Generator,HeadingPairs,HiddenSlides,HistoryAction,HistoryChanged,HistoryInstanceID,HistorySoftwareAgent,HistoryWhen,HyperfocalDistance,HyperlinksChanged,ImageHeight,ImageSize,ImageWidth,Initial-creator,InstanceID,ISO,KeyStampMp,LastModifiedBy,LensInfo,LensMake,LensModel,LightValue,Linearized,Lines,LinksUpToDate,Make,Megapixels,MetadataDate,MeteringMode,MIMEType,MMClips,Model,ModifyDate,Notes,Orientation,OriginalDocumentID,PageCount,PageImage,PageImageFormat,PageImageHeight,PageImagePageNumber,PageImageWidth,Pages,Paragraphs,PDFVersion,PhotometricInterpretation,PlanarConfiguration,PresentationFormat,PresentationTarget,PreviewImage,Producer,RenditionClass,ResolutionUnit,RevisionNumber,RowsPerStrip,RunTimeEpoch,RunTimeFlags,RunTimeScale,RunTimeSincePowerUp,RunTimeValue,SamplesPerPixel,ScaleCrop,ScaleFactor35efl,SceneCaptureType,SceneType,Security,SensingMethod,SharedDoc,ShutterSpeed,ShutterSpeedValue,Slides,SlugChecksum,SlugFamily,SlugFontKind,SlugFontSense_12_Checksum,SlugFoundry,SlugKerningChecksum,SlugOutlineFileSize,SlugPostScriptName,SlugVersion,Software,StripByteCounts,StripOffsets,SubjectArea,SubSecCreateDate,SubSecDateTimeOriginal,SubSecTimeDigitized,SubSecTimeOriginal,TaggedPDF,Template,TemplateHref,TemplateType,ThumbnailClip,ThumbnailImage,ThumbnailLength,ThumbnailOffset,Title,TitleOfParts,TitlesOfParts,TotalEditTime,Trapped,WhiteBalance,Words,XMPToolkit,XResolution,YCbCrPositioning,YCbCrSubSampling,YResolution,ZipBitFlag,ZipCompressedSize,ZipCompression,ZipCRC,ZipFileName,ZipModifyDate,ZipRequiredVersion,ZipUncompressedSize
E:/Experiment/STORY_01 - Copy/3B clientApp/WinUser8-A/Dropbox/DERM Statistical Data Sample 1.xla,,,,,14.0000,tzhuang,,,,,,,,Windows Latin 1 (Western European),,,AUT University,,,,,,2014:11:25 22:53:50,,,,,,,,,,,E:/Experiment/STORY_01 - Copy/3B clientApp/WinUser8-A/Dropbox,,,,,,,,,,,,,,,,10.61,,,,,,2018:03:12 16:39:02+00:00,2018:03:12 16:39:02+00:00,2018:03:11 16:29:59+00:00,DERM Statistical Data Sample 1.xla,rw-rw-rw-,30 kB,XLA,xla,,,,,,,,,,"Worksheets, 3",,,,,,,,No,,,,,,,,tzhuang,,,,,,,No,,,,,application/vnd.ms-excel,,,2014:11:25 23:54:55,,,,,,,,,,,,,,,,,,,,,,,,,,,,,No,,,,None,,No,,,,,,,,,,,,,Microsoft Excel,,,,,,,,,,,,,,,,,"Sheet1, Sheet2, Sheet3",,,,,,,,,,,,,,,,,,
E:/Experiment/STORY_01 - Copy/3B clientApp/WinUser8-A/Dropbox/DERM Statistical Data Sample 1.xlsx,,,,Microsoft Excel,14.0300,,,,,,,,,,,,AUT University,,,,,,2014:11:25 22:53:50Z,,tzhuang,,,,,,,,,E:/Experiment/STORY_01 - Copy/3B clientApp/WinUser8-A/Dropbox,,None,,,,,,,,,,,,,,10.61,,,,,,2018:03:12 16:39:02+00:00,2018:03:12 16:39:02+00:00,2018:03:11 16:30:01+00:00,DERM Statistical Data Sample 1.xlsx,rw-rw-rw-,18 kB,XLSX,xlsx,,,,,,,,,,"Worksheets, 3",,,,,,,,No,,,,,,,,tzhuang,,,,,,,No,,,,,application/vnd.openxmlformats-officedocument.spreadsheetml.sheet,,,2014:11:25 23:31:14Z,,,,,,,,,,,,,,,,,,,,,,,,,,,,,No,,,,,,No,,,,,,,,,,,,,,,,,,,,,,,,,,,,,,,"Sheet1, Sheet2, Sheet3",,,,,,,,,,0x0006,388,Deflated,0xf5582b6a,[Content_Types].xml,1980:01:01 00:00:00,20,1610
E:/Experiment/STORY_01 - Copy/3B clientApp/WinUser8-A/Dropbox/DERM Statistical Data Sample 1.xltx,,,,Microsoft Excel,14.0300,,,,,,,,,,,,AUT University,,,,,,2014:11:25 22:53:50Z,,tzhuang,,,,,,,,,E:/Experiment/STORY_01 - Copy/3B clientApp/WinUser8-A/Dropbox,,None,,,,,,,,,,,,,,10.61,,,,,,2018:03:12 16:39:02+00:00,2018:03:12 16:39:02+00:00,2018:03:11 16:30:03+00:00,DERM Statistical Data Sample 1.xltx,rw-rw-rw-,16 kB,XLTX,xltx,,,,,,,,,,"Worksheets, 3",,,,,,,,No,,,,,,,,tzhuang,,,,,,,No,,,,,application/vnd.openxmlformats-officedocument.spreadsheetml.template,,,2014:11:25 23:39:56Z,,,,,,,,,,,,,,,,,,,,,,,,,,,,,No,,,,,,No,,,,,,,,,,,,,,,,,,,,,,,,,,,,,,,"Sheet1, Sheet2, Sheet3",,,,,,,,,,0x0006,393,Deflated,0x7de67f9e,[Content_Types].xml,1980:01:01 00:00:00,20,1613
E:/Experiment/STORY_01 - Copy/3B clientApp/WinUser8-A/Dropbox/Disposing of Digital Debris (WinUser8-A's conflicted copy 2018-03-12).odt,,,,,,,,,,,,,,,,,,,,,,,,,,,,,,,,,,E:/Experiment/STORY_01 - Copy/3B clientApp/WinUser8-A/Dropbox,,,,,,,,,,,,,,,,10.61,,,,,,2018:03:12 16:39:02+00:00,2018:03:12 16:39:02+00:00,2018:03:11 18:35:34+00:00,Disposing of Digital Debris (WinUser8-A's conflicted copy 2018-03-12).odt,rw-rw-rw-,2.7 MB,ODT,odt,,,,,,,,,,,,,,,,,,,,,,,,,,,,,,,,,,,,,,application/vnd.oasis.opendocument.text,,,,,,,,,,,,,,,,,,,,,,,,,,,,,,,,,,,,,,,,,,,,,,,,,,,,,,,,,,,,,,,,,,,,,,,,,,,,,,,,,,,,,,
E:/Experiment/STORY_01 - Copy/3B clientApp/WinUser8-A/Dropbox/Disposing of Digital Debris - 97.doc,,,,,14.0000,tzhuang,,,,1089,,1277,,Windows Latin 1 (Western European),,,AUT University,Microsoft Word 97-2003 Document,32,,,,2014:11:24 23:11:00,,,,,,,,,,,E:/Experiment/STORY_01 - Copy/3B clientApp/WinUser8-A/Dropbox,,,,,,,,,,,,,,,,10.61,,,,,,2018:03:12 16:39:02+00:00,2018:03:12 16:39:02+00:00,2018:03:11 16:30:05+00:00,Disposing of Digital Debris - 97.doc,rw-rw-rw-,2.6 MB,DOC,doc,,,,,,,,,,"Title, 1",,,,,,,,No,,,,,,,,tzhuang,,,,,,9,No,,,,,application/msword,,,2014:11:24 23:11:00,,,,,,,,,,2,2,,,,,,,,,,2,,,,,,,,No,,,,None,,No,,,,,,,,,,,,,Microsoft Office Word,,,,,,,,,Normal.dotm,,,,,,,,,,0,,,190,,,,,,,,,,,,,
E:/Experiment/STORY_01 - Copy/3B clientApp/WinUser8-A/Dropbox/Disposing of Digital Debris Sample 1.pot,,,,,14.0000,tzhuang,,,2686712,,,,,Windows Latin 1 (Western European),,,AUT University,,,,,,2014:11:25 22:09:47,,,,tzhuang,,,,,,,E:/Experiment/STORY_01 - Copy/3B clientApp/WinUser8-A/Dropbox,,,,,,,,,,,,,,,,10.61,,,,,,2018:03:12 16:39:03+00:00,2018:03:12 16:39:03+00:00,2018:03:11 16:30:08+00:00,Disposing of Digital Debris Sample 1.pot,rw-rw-rw-,2.6 MB,POT,pot,,,,,,,,,,"Fonts Used, 5, Theme, 1, Slide Titles, 4",0,,,,,,,No,,,,,,,,tzhuang,,,,,,,No,,,,,application/vnd.ms-powerpoint,0,,2014:11:25 22:45:20,0,,,,,,,,,,21,,,,,On-screen Show (4:3),,,,,5,,,,,,,,No,,,,,,No,,,4,,,,,,,,,,Microsoft Office PowerPoint,,,,,,,,,,,,(Binary data 57736 bytes),,,,Disposing of Digital Debris,"Calibri, Arial, Calibri-Bold, Times New Roman, Calibri-BoldItalic, Office Theme, Disposing of Digital Debris Information Governance Strategy and Practice in Action , Introduction, Introduction (Cont.), Introduction (Cont.)",,35.6 minutes,,,213,,,,,,,,,,,,,
E:/Experiment/STORY_01 - Copy/3B clientApp/WinUser8-A/Dropbox/Disposing of Digital Debris Sample 1.pptx,,,,Microsoft Office PowerPoint,14.0000,,,,,,,,,,,,AUT University,,,,,,2014:11:25 22:09:47Z,,tzhuang,,,,,,,,,E:/Experiment/STORY_01 - Copy/3B clientApp/WinUser8-A/Dropbox,,,,,,,,,,,,,,,,10.61,,,,,,2018:03:12 16:39:03+00:00,2018:03:12 16:39:03+00:00,2018:03:11 16:30:10+00:00,Disposing of Digital Debris Sample 1.pptx,rw-rw-rw-,2.6 MB,PPTX,pptx,,,,,,,,,,"Theme, 1, Slide Titles, 4",0,,,,,,,No,,,,,,,,tzhuang,,,,,,,No,,,,,application/vnd.openxmlformats-officedocument.presentationml.presentation,0,,2014:11:25 22:42:06Z,0,,,,,,,,,,21,,,,On-screen Show (4:3),,(Binary data 32768 bytes),,,,5,,,,,,,,No,,,,,,No,,,4,,,,,,,,,,,,,,,,,,,,,,,,,,Disposing of Digital Debris,,"Office Theme, Disposing of Digital Debris Information Governance Strategy and Practice in Action , Introduction, Introduction (Cont.), Introduction (Cont.)",32 minutes,,,213,,,,,,0x0006,494,Deflated,0x8607c06b,[Content_Types].xml,1980:01:01 00:00:00,20,3634
E:/Experiment/STORY_01 - Copy/3B clientApp/WinUser8-A/Dropbox/Disposing of Digital Debris.docm,,,,Microsoft Office Word,14.0000,,,,,1089,1277,,,,,,AUT University,,,,,,2014:11:24 23:20:00Z,,tzhuang,,,,,,,,,E:/Experiment/STORY_01 - Copy/3B clientApp/WinUser8-A/Dropbox,,None,,,,,,,,,,,,,,10.61,,,,,,2018:03:12 16:39:03+00:00,2018:03:12 16:39:03+00:00,2018:03:11 16:30:13+00:00,Disposing of Digital Debris.docm,rw-rw-rw-,2.5 MB,DOCM,docm,,,,,,,,,,"Title, 1",,,,,,,,No,,,,,,,,tzhuang,,,,,,9,No,,,,,application/vnd.ms-word.document.macroEnabled,,,2014:11:24 23:20:00Z,,,,,,,,,,2,2,,,,,,,,,,2,,,,,,,,No,,,,,,No,,,,,,,,,,,,,,,,,,,,,,Normal.dotm,,,,,,,,,,0,,,190,,,,,,0x0006,434,Deflated,0x8d9c055f,[Content_Types].xml,1980:01:01 00:00:00,20,1840
E:/Experiment/STORY_01 - Copy/3B clientApp/WinUser8-A/Dropbox/Disposing of Digital Debris.dotm,,,,Microsoft Office Word,14.0000,,,,,1089,1277,,,,,,AUT University,,,,,,2014:11:24 23:21:00Z,,tzhuang,,,,,,,,,E:/Experiment/STORY_01 - Copy/3B clientApp/WinUser8-A/Dropbox,,None,,,,,,,,,,,,,,10.61,,,,,,2018:03:12 16:39:03+00:00,2018:03:12 16:39:03+00:00,2018:03:11 16:30:15+00:00,Disposing of Digital Debris.dotm,rw-rw-rw-,2.5 MB,DOTM,dotm,,,,,,,,,,"Title, 1",,,,,,,,No,,,,,,,,tzhuang,,,,,,9,No,,,,,application/vnd.ms-word.template.macroEnabledTemplate,,,2014:11:24 23:21:00Z,,,,,,,,,,2,2,,,,,,,,,,2,,,,,,,,No,,,,,,No,,,,,,,,,,,,,,,,,,,,,,Disposing of Digital Debris.dotm,,,,,,,,,,0,,,190,,,,,,0x0006,439,Deflated,0xa93c7fe6,[Content_Types].xml,1980:01:01 00:00:00,20,1848
E:/Experiment/STORY_01 - Copy/3B clientApp/WinUser8-A/Dropbox/Disposing of Digital Debris.odt,,,,,,,,,,,,,,,,,,,,,,,,2014:11:24 23:27:00Z,tzhuang,,,2014:11:24 23:27:00Z,,,,,,E:/Experiment/STORY_01 - Copy/3B clientApp/WinUser8-A/Dropbox,,,1277,1089,2,2,9,190,,2,PT60S,,,,,10.61,,,,,,2018:03:12 16:39:05+00:00,2018:03:12 16:39:05+00:00,2018:03:11 16:30:17+00:00,Disposing of Digital Debris.odt,rw-rw-rw-,2.5 MB,ODT,odt,,,,,,,,,MicrosoftOffice/14.0 MicrosoftWord,,,,,,,,,,,,,tzhuang,,,,,,,,,,,,,,,,application/vnd.oasis.opendocument.text,,,,,,,,,,,,,,,,,,,,,,,,,,,,,,,,,,,,,,,,,,,,,,,,,,,,,,,,,,,,,Normal.dotm,simple,,,,,,,,,,,,,,,,,,,,,,,,
E:/Experiment/STORY_01 - Copy/3B clientApp/WinUser8-A/Dropbox/Disposing-of-Digital-Debris-Information-Governance-Practice-and-Strategy.rtf,,,,,,,,,,,,,,,,,,,,,,,,,,,,,,,,,,E:/Experiment/STORY_01 - Copy/3B clientApp/WinUser8-A/Dropbox,,,,,,,,,,,,,,,,10.61,,,,,,2018:03:12 16:39:05+00:00,2018:03:12 16:39:05+00:00,2018:03:11 18:20:06+00:00,Disposing-of-Digital-Debris-Information-Governance-Practice-and-Strategy.rtf,rw-rw-rw-,5.1 MB,RTF,rtf,,,,,,,,,,,,,,,,,,,,,,,,,,,,,,,,,,,,,,text/rtf,,,,,,,,,,,,,,,,,,,,,,,,,,,,,,,,,,,,,,,,,,,,,,,,,,,,,,,,,,,,,,,,,,,,,,,,,,,,,,,,,,,,,,
E:/Experiment/STORY_01 - Copy/3B clientApp/WinUser8-A/Dropbox/Disposing-of-Digital-Debris-Information-Governance-Practice-and-Strategy_Page_02.tif,,,,,,,8 8 8 8,,,,,,,,,,,,,,LZW,,,,,,,,,,,,,E:/Experiment/STORY_01 - Copy/3B clientApp/WinUser8-A/Dropbox,,,,,,,,,,,,,"Little-endian (Intel, II)",,,10.61,,,,,,2018:03:12 16:39:06+00:00,2018:03:12 16:39:06+00:00,2018:03:11 16:30:22+00:00,Disposing-of-Digital-Debris-Information-Governance-Practice-and-Strategy_Page_02.tif,rw-rw-rw-,341 kB,TIFF,tif,,,,,,,,,,,,,,,,,,,2200,1700x2200,1700,,,,,,,,,,,,,,3.7,,,image/tiff,,,,,Horizontal (normal),,,,,,,,,,,CMYK,Chunky,,,,,,inches,,1,,,,,,4,,,,,,,,,,,,,,,,,,,,,(Binary data 8799 bytes),(Binary data 14610 bytes),,,,,,,,,,,,,,,,,,,,,,200,,,200,,,,,,,,
E:/Experiment/STORY_01 - Copy/3B clientApp/WinUser8-A/Dropbox/EDRM.html,,,,,,,,,,,,,,,,,,,,,,text/html; charset=UTF-8,,,,,,,,,,,,E:/Experiment/STORY_01 - Copy/3B clientApp/WinUser8-A/Dropbox,,,,,,,,,,,,,,,,10.61,,,,,,2018:03:12 16:39:06+00:00,2018:03:12 16:39:06+00:00,2018:03:11 16:30:23+00:00,EDRM.html,rw-rw-rw-,104 kB,HTML,html,,,,,,,,,FV Code Highlighter,,,,,,,,,,,,,,,,,,,,,,,,,,,,,text/html,,,,,,,,,,,,,,,,,,,,,,,,,,,,,,,,,,,,,,,,,,,,,,,,,,,,,,,,,,,,,,,,,,,EDRM,,,,,,,,,,,,,,,,,,,
E:/Experiment/STORY_01 - Copy/3B clientApp/WinUser8-A/Dropbox/Getting Started with Dropbox.pdf,,,,,,,,,,,,,,,,,,,,,,,2016:06:02 15:49:07-04:00,,Adobe InDesign CS5 (7.0),Adobe InDesign CS5 (7.0),,,,xmp.did:6E2138981F206811AFFDAADC084A5219,xmp.iid:99D5513C38206811A613B1E54D7F24A3,xmp.did:0094625f-70c7-450c-b113-dd7e3449009b,default,E:/Experiment/STORY_01 - Copy/3B clientApp/WinUser8-A/Dropbox,13,,,,,,,,xmp.did:CE43FD5853206811A613B1E54D7F24A3,,,,,,,10.61,,,,,,2018:03:12 16:39:07+00:00,2018:03:12 16:39:07+00:00,2018:03:11 14:53:43+00:00,Getting Started with Dropbox.pdf,rw-rw-rw-,1433 kB,PDF,pdf,,,,,,,application/pdf,,,,,"created, saved, saved, saved, saved, saved, saved, saved, saved, saved, saved, saved, saved, saved, saved, saved, saved, saved, saved, saved, saved, saved, saved, saved, saved, saved, saved, saved, saved, saved, saved, saved, saved, saved, saved","/, /metadata, /, /, /metadata, /, /, /metadata, /, /, /metadata, /, /, /metadata, /, /, /metadata, /, /, /metadata, /, /, /metadata, /, /, /metadata, /, /, /;/metadata, /metadata, /;/metadata, /;/metadata, /metadata, /;/metadata","xmp.iid:0094625f-70c7-450c-b113-dd7e3449009b, xmp.iid:44079a70-c6cd-44fa-8845-22d024b8ce97, xmp.iid:5bc8c052-9b1f-49a7-b453-1f73a53b305c, xmp.iid:2e35ec17-6a68-4f3e-8755-d5205a7a09f3, xmp.iid:1f4e55a9-c3d6-43d3-86de-53b9b103eaea, xmp.iid:92b765a5-a271-45ee-841c-dc60394a24aa, xmp.iid:4778cde6-c6bd-4392-b54a-e03990169f04, xmp.iid:885bb171-ce1a-41eb-b112-43a14c3277a6, xmp.iid:28f080a0-943c-43ea-9191-b991390a2512, xmp.iid:04a6aab8-a8fc-4da0-8047-76be5c49508c, xmp.iid:89955731-b0e6-4212-88b2-153e972be3f7, xmp.iid:dbb4b9f7-d468-4507-9db8-5cff237dba72, xmp.iid:34a5fbca-9eb0-418c-89cd-5f3814025ec4, xmp.iid:79dd4855-156e-415b-859a-9176b443ccd3, xmp.iid:271b9054-4588-4d1f-8fde-4c57f61ce533, xmp.iid:d4fdc22a-ffac-4580-aadd-58b50820f05f, xmp.iid:6bf36abd-ffb6-4ce6-9840-a6acbc970ac4, xmp.iid:83ee87de-e386-4ad9-a7d3-0352a1b321ad, xmp.iid:a12bb34c-8d84-4d41-aef0-0eda8cf37b56, xmp.iid:a94cc359-fba2-47cb-a6c7-8f0c24ca76aa, xmp.iid:426b8766-e6e1-418b-bda1-e684690212b2, xmp.iid:7366a09e-2bf8-4672-b515-afcb4ddde724, xmp.iid:901a8aff-efe5-40a8-bac0-e48149e6df90, xmp.iid:67f6150b-5b92-4f60-80c0-3627c7baa3a9, xmp.iid:abb473cd-b31f-45f3-b5e6-d7ba75e62bfe, xmp.iid:d4747fea-38f5-491d-bc18-cc892fbe3ca5, xmp.iid:367ba961-b652-4bb9-a211-ff7df7e94215, xmp.iid:4d5fd99b-571e-4ab0-ab05-18b6bd4e04e4, xmp.iid:68cd6514-9f13-470b-be95-ac5d3bd9b75f, xmp.iid:0FCF2E4220206811AFFDAADC084A5219, xmp.iid:10CF2E4220206811AFFDAADC084A5219, xmp.iid:2EC6BD3312206811A613B1E54D7F24A3, xmp.iid:98D5513C38206811A613B1E54D7F24A3, xmp.iid:99D5513C38206811A613B1E54D7F24A3, xmp.iid:CE43FD5853206811A613B1E54D7F24A3","Adobe InDesign CC 2014 (Macintosh), Adobe InDesign CC 2014 (Macintosh), Adobe InDesign CC 2014 (Macintosh), Adobe InDesign CC 2014 (Macintosh), Adobe InDesign CC 2014 (Macintosh), Adobe InDesign CC 2014 (Macintosh), Adobe InDesign CC 2014 (Macintosh), Adobe InDesign CC 2014 (Macintosh), Adobe InDesign CC 2014 (Macintosh), Adobe InDesign CC 2014 (Macintosh), Adobe InDesign CC 2014 (Macintosh), Adobe InDesign CC 2014 (Macintosh), Adobe InDesign CC 2014 (Macintosh), Adobe InDesign CC 2014 (Macintosh), Adobe InDesign CC 2014 (Macintosh), Adobe InDesign CC 2014 (Macintosh), Adobe InDesign CC 2014 (Macintosh), Adobe InDesign CC 2014 (Macintosh), Adobe InDesign CC 2014 (Macintosh), Adobe InDesign CC 2014 (Macintosh), Adobe InDesign CC 2014 (Macintosh), Adobe InDesign CC 2014 (Macintosh), Adobe InDesign CC 2014 (Macintosh), Adobe InDesign CC 2014 (Macintosh), Adobe InDesign CC 2014 (Macintosh), Adobe InDesign CC 2015 (Macintosh), Adobe InDesign CC 2015 (Macintosh), Adobe InDesign CC 2015 (Macintosh), Adobe InDesign CC 2015 (Macintosh), Adobe InDesign 7.0, Adobe InDesign 7.0, Adobe InDesign 7.0, Adobe InDesign 7.0, Adobe InDesign 7.0, Adobe InDesign 7.0","2015:03:04 11:18:08-08:00, 2015:03:04 11:26:18-08:00, 2015:03:04 11:26:18-08:00, 2015:03:04 15:12:52-08:00, 2015:03:06 20:50:15-08:00, 2015:03:09 12:01:50-07:00, 2015:03:09 12:01:50-07:00, 2015:03:09 12:13:43-07:00, 2015:03:09 13:29:31-07:00, 2015:03:09 13:29:31-07:00, 2015:03:09 13:35:02-07:00, 2015:03:10 00:39:11-07:00, 2015:03:10 00:39:11-07:00, 2015:03:12 18:46:55-07:00, 2015:03:13 10:26:23-07:00, 2015:03:13 10:26:24-07:00, 2015:03:17 14:34:18-07:00, 2015:03:17 15:29:33-07:00, 2015:03:17 15:29:33-07:00, 2015:03:23 05:31:13-07:00, 2015:03:23 05:41:33-07:00, 2015:03:23 05:41:33-07:00, 2015:05:08 17:00:03-07:00, 2015:05:08 17:02:41-07:00, 2015:05:08 17:02:41-07:00, 2015:10:30 18:38:59-03:00, 2015:10:30 18:38:59-03:00, 2015:10:30 18:40:13-03:00, 2016:05:23 10:26:09-07:00, 2016:05:30 15:43:55-04:00, 2016:05:30 15:43:55-04:00, 2016:06:01 15:58:54-04:00, 2016:06:01 21:10:23-04:00, 2016:06:02 15:48:30-04:00, 2016:06:02 15:48:30-04:00",,,,,,,uuid:110d433f-2fff-4e4e-848c-213b65c548c2,,AAAAAA==,,,,,,Yes,,,,,2016:06:02 15:49:15-04:00,,application/pdf,,,2016:06:02 15:49:15-04:00,,,xmp.did:0094625f-70c7-450c-b113-dd7e3449009b,10,"(Binary data 7624 bytes), (Binary data 7027 bytes)","JPEG, JPEG","256, 256","1, 2","256, 256",,,1.4,,,,,,Adobe PDF Library 9.9,proof:pdf,,,,,,,,,,,,,,,,,,,,705184585,Post Grotesk,OpenType - PS,705184585,--,0,0,PostGrotesk-Book,1.000,,,,,,,,,Yes,,,,,,,,,,,,False,,,"Adobe XMP Core 5.0-c060 61.134777, 2010/02/12-17:32:00        ",,,,,,,,,,,,
E:/Experiment/STORY_01 - Copy/3B clientApp/WinUser8-A/Dropbox/IMG_3090.JPG,0.07926226809 -0.244266852 -0.9710739222,2.2,2.2,,,,8,4.399081329,,,,,0.004 mm,,3,sRGB,,,,"Y, Cb, Cr, -",JPEG (old-style),,2015:02:28 19:26:04,,,,,,2015:02:28 19:26:04,,,,,E:/Experiment/STORY_01 - Copy/3B clientApp/WinUser8-A/Dropbox,,,,,,,,,,,,"Baseline DCT, Huffman coding","Big-endian (Motorola, MM)",2448,3264,10.61,0221,0,Auto,Program AE,1/69,2018:03:12 16:39:07+00:00,2018:03:12 16:39:07+00:00,2018:03:11 16:30:25+00:00,IMG_3090.JPG,rw-rw-rw-,1629 kB,JPEG,jpg,"On, Fired",0100,2.2,4.2 mm,4.2 mm (35 mm equivalent: 29.0 mm),29 mm,,63.7 deg,,,,,,,,,1.82 m,,2448,3264x2448,3264,,,32,,,4.15mm f/2.2,Apple,iPhone 6 back camera 4.15mm f/2.2,10.0,,,,Apple,8.0,,Multi-segment,image/jpeg,,iPhone 6,2015:02:28 19:26:04,,Rotate 90 CW,,,,,,,,,,,,,,,,,,inches,,,0,Valid,1000000000,18 days 12:07:07,1598827555186166,,,7.0,Standard,Directly photographed,,One-chip color area,,1/69,1/69,,,,,,,,,,,8.1.1,,,1631 1223 1795 1077,2015:02:28 19:26:04.956,2015:02:28 19:26:04.956,956,956,,,,,,(Binary data 9386 bytes),9386,1678,,,,,,Auto,,,72,Centered,YCbCr4:2:0 (2 2),72,,,,,,,,
